#Command:  
^C:\USERS\EGGETCOOL\DOCUMENTS\BITBUCKET\GAMEPROGRAMMINGII-VT16\DEPENDENCIES\LTBL2\CMAKEFILES\3.4.3\COMPILERIDC\DEBUG\CMAKECCOMPILERID.OBJ
C:\WINDOWS\SYSTEM32\DNSAPI.DLL
C:\WINDOWS\SYSTEM32\WINDOWSPOWERSHELL\V1.0\POWERSHELL.EXE
