#Command:  
^C:\USERS\EGGETCOOL\DOCUMENTS\BITBUCKET\GAMEPROGRAMMINGII-VT16\DEPENDENCIES\LTBL2\CMAKEFILES\3.4.3\COMPILERIDC\DEBUG\CMAKECCOMPILERID.OBJ
C:\USERS\EGGETCOOL\APPDATA\LOCAL\MICROSOFT\APPLICATIONINSIGHTS\VSTELAIF-312CBD79-9DBB-4C48-A7DA-3CC2A931CB70\20160128233422_219F90F9AE47494581B1CC6856B5DE8D.TRN
C:\USERS\EGGETCOOL\APPDATA\LOCAL\MICROSOFT\CLR_V4.0_32\USAGELOGS\VCTIP.EXE.LOG
